{"tracks": {"href": "https://api.spotify.com/v1/search?query=Ramin+Djawadi&type=track&offset=0&limit=10", "items": [{"album": {"album_type": "album", "artists": [{"external_urls": {"spotify": "https://open.spotify.com/artist/1hCkSJcXREhrodeIHQdav8"}, "href": "https://api.spotify.com/v1/artists/1hCkSJcXREhrodeIHQdav8", "id": "1hCkSJcXREhrodeIHQdav8", "name": "Ramin Djawadi", "type": "artist", "uri": "spotify:artist:1hCkSJcXREhrodeIHQdav8"}], "available_markets": ["CA", "US"], "external_urls": {"spotify": "https://open.spotify.com/album/2Ia3TzAjzWw0Tdspy9Fwgg"}, "href": "https://api.spotify.com/v1/albums/2Ia3TzAjzWw0Tdspy9Fwgg", "id": "2Ia3TzAjzWw0Tdspy9Fwgg", "images": [{"height": 640, "url": "https://i.scdn.co/image/ab67616d0000b273e4f028aed6760c0c7f1eb0ca", "width": 640}, {"height": 300, "url": "https://i.scdn.co/image/ab67616d00001e02e4f028aed6760c0c7f1eb0ca", "width": 300}, {"height": 64, "url": "https://i.scdn.co/image/ab67616d00004851e4f028aed6760c0c7f1eb0ca", "width": 64}], "name": "Game Of Thrones: Season 6 (Music from the HBO Series)", "release_date": "2016-06-24", "release_date_precision": "day", "total_tracks": 26, "type": "album", "uri": "spotify:album:2Ia3TzAjzWw0Tdspy9Fwgg"}, "artists": [{"external_urls": {"spotify": "https://open.spotify.com/artist/1hCkSJcXREhrodeIHQdav8"}, "href": "https://api.spotify.com/v1/artists/1hCkSJcXREhrodeIHQdav8", "id": "1hCkSJcXREhrodeIHQdav8", "name": "Ramin Djawadi", "type": "artist", "uri": "spotify:artist:1hCkSJcXREhrodeIHQdav8"}], "available_markets": ["CA", "US"], "disc_number": 1, "duration_ms": 589094, "explicit": false, "external_ids": {"isrc": "USNLR1600338"}, "external_urls": {"spotify": "https://open.spotify.com/track/1SbsbLsUMnAKWHx1zAV6ER"}, "href": "https://api.spotify.com/v1/tracks/1SbsbLsUMnAKWHx1zAV6ER", "id": "1SbsbLsUMnAKWHx1zAV6ER", "is_local": false, "name": "Light of the Seven", "popularity": 55, "preview_url": "https://p.scdn.co/mp3-preview/88eeb34c8ff3286be682569d7404abceaf73dad0?cid=348f94d3a73241188b2a89c91e1cfaee", "track_number": 3, "type": "track", "uri": "spotify:track:1SbsbLsUMnAKWHx1zAV6ER"}, {"album": {"album_type": "album", "artists": [{"external_urls": {"spotify": "https://open.spotify.com/artist/1hCkSJcXREhrodeIHQdav8"}, "href": "https://api.spotify.com/v1/artists/1hCkSJcXREhrodeIHQdav8", "id": "1hCkSJcXREhrodeIHQdav8", "name": "Ramin Djawadi", "type": "artist", "uri": "spotify:artist:1hCkSJcXREhrodeIHQdav8"}], "available_markets": ["AD", "AE", "AR", "AT", "AU", "BE", "BG", "BH", "BO", "BR", "CA", "CH", "CL", "CO", "CR", "CY", "CZ", "DE", "DK", "DO", "DZ", "EC", "EE", "EG", "ES", "FI", "FR", "GB", "GR", "GT", "HK", "HN", "HU", "ID", "IE", "IL", "IN", "IS", "IT", "JO", "JP", "KW", "LB", "LI", "LT", "LU", "LV", "MA", "MC", "MT", "MX", "MY", "NI", "NL", "NO", "NZ", "OM", "PA", "PE", "PH", "PL", "PS", "PT", "PY", "QA", "RO", "SA", "SE", "SG", "SK", "SV", "TH", "TN", "TR", "TW", "US", "UY", "VN", "ZA"], "external_urls": {"spotify": "https://open.spotify.com/album/3AOeatEAPjy1CKtdkaXaDq"}, "href": "https://api.spotify.com/v1/albums/3AOeatEAPjy1CKtdkaXaDq", "id": "3AOeatEAPjy1CKtdkaXaDq", "images": [{"height": 640, "url": "https://i.scdn.co/image/ab67616d0000b273536f3b6f6b46e6e97742673b", "width": 640}, {"height": 300, "url": "https://i.scdn.co/image/ab67616d00001e02536f3b6f6b46e6e97742673b", "width": 300}, {"height": 64, "url": "https://i.scdn.co/image/ab67616d00004851536f3b6f6b46e6e97742673b", "width": 64}], "name": "Game Of Thrones: Season 8 (Music from the HBO Series)", "release_date": "2019-05-19", "release_date_precision": "day", "total_tracks": 32, "type": "album", "uri": "spotify:album:3AOeatEAPjy1CKtdkaXaDq"}, "artists": [{"external_urls": {"spotify": "https://open.spotify.com/artist/1hCkSJcXREhrodeIHQdav8"}, "href": "https://api.spotify.com/v1/artists/1hCkSJcXREhrodeIHQdav8", "id": "1hCkSJcXREhrodeIHQdav8", "name": "Ramin Djawadi", "type": "artist", "uri": "spotify:artist:1hCkSJcXREhrodeIHQdav8"}], "available_markets": ["AD", "AE", "AR", "AT", "AU", "BE", "BG", "BH", "BO", "BR", "CA", "CH", "CL", "CO", "CR", "CY", "CZ", "DE", "DK", "DO", "DZ", "EC", "EE", "EG", "ES", "FI", "FR", "GB", "GR", "GT", "HK", "HN", "HU", "ID", "IE", "IL", "IN", "IS", "IT", "JO", "JP", "KW", "LB", "LI", "LT", "LU", "LV", "MA", "MC", "MT", "MX", "MY", "NI", "NL", "NO", "NZ", "OM", "PA", "PE", "PH", "PL", "PS", "PT", "PY", "QA", "RO", "SA", "SE", "SG", "SK", "SV", "TH", "TN", "TR", "TW", "US", "UY", "VN", "ZA"], "disc_number": 1, "duration_ms": 530532, "explicit": false, "external_ids": {"isrc": "USNLR1900244"}, "external_urls": {"spotify": "https://open.spotify.com/track/1aDklx1GaBqHFowCzz63wU"}, "href": "https://api.spotify.com/v1/tracks/1aDklx1GaBqHFowCzz63wU", "id": "1aDklx1GaBqHFowCzz63wU", "is_local": false, "name": "The Night King", "popularity": 62, "preview_url": "https://p.scdn.co/mp3-preview/310a325dc37f428a2b4738f1553474ef50625a6b?cid=348f94d3a73241188b2a89c91e1cfaee", "track_number": 13, "type": "track", "uri": "spotify:track:1aDklx1GaBqHFowCzz63wU"}, {"album": {"album_type": "album", "artists": [{"external_urls": {"spotify": "https://open.spotify.com/artist/1hCkSJcXREhrodeIHQdav8"}, "href": "https://api.spotify.com/v1/artists/1hCkSJcXREhrodeIHQdav8", "id": "1hCkSJcXREhrodeIHQdav8", "name": "Ramin Djawadi", "type": "artist", "uri": "spotify:artist:1hCkSJcXREhrodeIHQdav8"}], "available_markets": ["AD", "AE", "AR", "AT", "AU", "BE", "BG", "BH", "BO", "BR", "CA", "CH", "CL", "CO", "CR", "CY", "CZ", "DE", "DK", "DO", "DZ", "EC", "EE", "EG", "ES", "FI", "FR", "GB", "GR", "GT", "HK", "HN", "HU", "ID", "IE", "IL", "IN", "IS", "IT", "JO", "JP", "KW", "LB", "LI", "LT", "LU", "LV", "MA", "MC", "MT", "MX", "MY", "NI", "NL", "NO", "NZ", "OM", "PA", "PE", "PH", "PL", "PS", "PT", "PY", "QA", "RO", "SA", "SE", "SG", "SK", "SV", "TH", "TN", "TR", "TW", "US", "UY", "VN", "ZA"], "external_urls": {"spotify": "https://open.spotify.com/album/4h8YNfTlnKKwqImHRZwhBg"}, "href": "https://api.spotify.com/v1/albums/4h8YNfTlnKKwqImHRZwhBg", "id": "4h8YNfTlnKKwqImHRZwhBg", "images": [{"height": 640, "url": "https://i.scdn.co/image/ab67616d0000b27300c70c200f7a397375da6b5f", "width": 640}, {"height": 300, "url": "https://i.scdn.co/image/ab67616d00001e0200c70c200f7a397375da6b5f", "width": 300}, {"height": 64, "url": "https://i.scdn.co/image/ab67616d0000485100c70c200f7a397375da6b5f", "width": 64}], "name": "Westworld: Season 3 (Music From The HBO Series)", "release_date": "2020-05-03", "release_date_precision": "day", "total_tracks": 29, "type": "album", "uri": "spotify:album:4h8YNfTlnKKwqImHRZwhBg"}, "artists": [{"external_urls": {"spotify": "https://open.spotify.com/artist/1hCkSJcXREhrodeIHQdav8"}, "href": "https://api.spotify.com/v1/artists/1hCkSJcXREhrodeIHQdav8", "id": "1hCkSJcXREhrodeIHQdav8", "name": "Ramin Djawadi", "type": "artist", "uri": "spotify:artist:1hCkSJcXREhrodeIHQdav8"}], "available_markets": ["AD", "AE", "AR", "AT", "AU", "BE", "BG", "BH", "BO", "BR", "CA", "CH", "CL", "CO", "CR", "CY", "CZ", "DE", "DK", "DO", "DZ", "EC", "EE", "EG", "ES", "FI", "FR", "GB", "GR", "GT", "HK", "HN", "HU", "ID", "IE", "IL", "IN", "IS", "IT", "JO", "JP", "KW", "LB", "LI", "LT", "LU", "LV", "MA", "MC", "MT", "MX", "MY", "NI", "NL", "NO", "NZ", "OM", "PA", "PE", "PH", "PL", "PS", "PT", "PY", "QA", "RO", "SA", "SE", "SG", "SK", "SV", "TH", "TN", "TR", "TW", "US", "UY", "VN", "ZA"], "disc_number": 1, "duration_ms": 331594, "explicit": false, "external_ids": {"isrc": "USNLR2000107"}, "external_urls": {"spotify": "https://open.spotify.com/track/29mrsJanlVWcZDe9gP6NJ6"}, "href": "https://api.spotify.com/v1/tracks/29mrsJanlVWcZDe9gP6NJ6", "id": "29mrsJanlVWcZDe9gP6NJ6", "is_local": false, "name": "Wicked Games", "popularity": 58, "preview_url": "https://p.scdn.co/mp3-preview/3683bb9aa28fd9bf02cd83c7b0326a9b1b575ff7?cid=348f94d3a73241188b2a89c91e1cfaee", "track_number": 18, "type": "track", "uri": "spotify:track:29mrsJanlVWcZDe9gP6NJ6"}, {"album": {"album_type": "album", "artists": [{"external_urls": {"spotify": "https://open.spotify.com/artist/1hCkSJcXREhrodeIHQdav8"}, "href": "https://api.spotify.com/v1/artists/1hCkSJcXREhrodeIHQdav8", "id": "1hCkSJcXREhrodeIHQdav8", "name": "Ramin Djawadi", "type": "artist", "uri": "spotify:artist:1hCkSJcXREhrodeIHQdav8"}], "available_markets": ["AD", "AE", "AR", "AT", "AU", "BE", "BG", "BH", "BO", "BR", "CA", "CH", "CL", "CO", "CR", "CY", "CZ", "DE", "DK", "DO", "DZ", "EC", "EE", "EG", "ES", "FI", "FR", "GB", "GR", "GT", "HK", "HN", "HU", "ID", "IE", "IL", "IN", "IS", "IT", "JO", "JP", "KW", "LB", "LI", "LT", "LU", "LV", "MA", "MC", "MT", "MX", "MY", "NI", "NL", "NO", "NZ", "OM", "PA", "PE", "PH", "PL", "PS", "PT", "PY", "QA", "RO", "SA", "SE", "SG", "SK", "SV", "TH", "TN", "TR", "TW", "US", "UY", "VN", "ZA"], "external_urls": {"spotify": "https://open.spotify.com/album/41zMFsCjcGenYKVJYUXU2n"}, "href": "https://api.spotify.com/v1/albums/41zMFsCjcGenYKVJYUXU2n", "id": "41zMFsCjcGenYKVJYUXU2n", "images": [{"height": 640, "url": "https://i.scdn.co/image/ab67616d0000b27362be9b16adb2e32aed9bda26", "width": 640}, {"height": 300, "url": "https://i.scdn.co/image/ab67616d00001e0262be9b16adb2e32aed9bda26", "width": 300}, {"height": 64, "url": "https://i.scdn.co/image/ab67616d0000485162be9b16adb2e32aed9bda26", "width": 64}], "name": "Game Of Thrones: Season 3 (Music from the HBO Series)", "release_date": "2013-06-04", "release_date_precision": "day", "total_tracks": 19, "type": "album", "uri": "spotify:album:41zMFsCjcGenYKVJYUXU2n"}, "artists": [{"external_urls": {"spotify": "https://open.spotify.com/artist/1hCkSJcXREhrodeIHQdav8"}, "href": "https://api.spotify.com/v1/artists/1hCkSJcXREhrodeIHQdav8", "id": "1hCkSJcXREhrodeIHQdav8", "name": "Ramin Djawadi", "type": "artist", "uri": "spotify:artist:1hCkSJcXREhrodeIHQdav8"}], "available_markets": ["AD", "AE", "AR", "AT", "AU", "BE", "BG", "BH", "BO", "BR", "CA", "CH", "CL", "CO", "CR", "CY", "CZ", "DE", "DK", "DO", "DZ", "EC", "EE", "EG", "ES", "FI", "FR", "GB", "GR", "GT", "HK", "HN", "HU", "ID", "IE", "IL", "IN", "IS", "IT", "JO", "JP", "KW", "LB", "LI", "LT", "LU", "LV", "MA", "MC", "MT", "MX", "MY", "NI", "NL", "NO", "NZ", "OM", "PA", "PE", "PH", "PL", "PS", "PT", "PY", "QA", "RO", "SA", "SE", "SG", "SK", "SV", "TH", "TN", "TR", "TW", "US", "UY", "VN", "ZA"], "disc_number": 1, "duration_ms": 170560, "explicit": false, "external_ids": {"isrc": "USNLR1300355"}, "external_urls": {"spotify": "https://open.spotify.com/track/1vPEPhmGDnp8RR6GCBozaa"}, "href": "https://api.spotify.com/v1/tracks/1vPEPhmGDnp8RR6GCBozaa", "id": "1vPEPhmGDnp8RR6GCBozaa", "is_local": false, "name": "A Lannister Always Pays His Debts", "popularity": 60, "preview_url": "https://p.scdn.co/mp3-preview/43d967066f07ecdf7daded0bdc521adc73a0f07a?cid=348f94d3a73241188b2a89c91e1cfaee", "track_number": 2, "type": "track", "uri": "spotify:track:1vPEPhmGDnp8RR6GCBozaa"}, {"album": {"album_type": "album", "artists": [{"external_urls": {"spotify": "https://open.spotify.com/artist/1hCkSJcXREhrodeIHQdav8"}, "href": "https://api.spotify.com/v1/artists/1hCkSJcXREhrodeIHQdav8", "id": "1hCkSJcXREhrodeIHQdav8", "name": "Ramin Djawadi", "type": "artist", "uri": "spotify:artist:1hCkSJcXREhrodeIHQdav8"}], "available_markets": ["AD", "AE", "AR", "AT", "AU", "BE", "BG", "BH", "BO", "BR", "CA", "CH", "CL", "CO", "CR", "CY", "CZ", "DE", "DK", "DO", "DZ", "EC", "EE", "EG", "ES", "FI", "FR", "GB", "GR", "GT", "HK", "HN", "HU", "ID", "IE", "IL", "IN", "IS", "IT", "JO", "JP", "KW", "LB", "LI", "LT", "LU", "LV", "MA", "MC", "MT", "MY", "NI", "NL", "NO", "NZ", "OM", "PA", "PE", "PH", "PL", "PS", "PT", "PY", "QA", "RO", "SA", "SE", "SG", "SK", "SV", "TH", "TN", "TR", "TW", "US", "UY", "VN", "ZA"], "external_urls": {"spotify": "https://open.spotify.com/album/5P9JZJW0itEaDK5RfWiSuZ"}, "href": "https://api.spotify.com/v1/albums/5P9JZJW0itEaDK5RfWiSuZ", "id": "5P9JZJW0itEaDK5RfWiSuZ", "images": [{"height": 640, "url": "https://i.scdn.co/image/ab67616d0000b273239a1395e4d595efc28af924", "width": 640}, {"height": 300, "url": "https://i.scdn.co/image/ab67616d00001e02239a1395e4d595efc28af924", "width": 300}, {"height": 64, "url": "https://i.scdn.co/image/ab67616d00004851239a1395e4d595efc28af924", "width": 64}], "name": "Game Of Thrones (Music From The HBO Series)", "release_date": "2011-01-01", "release_date_precision": "day", "total_tracks": 29, "type": "album", "uri": "spotify:album:5P9JZJW0itEaDK5RfWiSuZ"}, "artists": [{"external_urls": {"spotify": "https://open.spotify.com/artist/1hCkSJcXREhrodeIHQdav8"}, "href": "https://api.spotify.com/v1/artists/1hCkSJcXREhrodeIHQdav8", "id": "1hCkSJcXREhrodeIHQdav8", "name": "Ramin Djawadi", "type": "artist", "uri": "spotify:artist:1hCkSJcXREhrodeIHQdav8"}], "available_markets": ["AD", "AE", "AR", "AT", "AU", "BE", "BG", "BH", "BO", "BR", "CA", "CH", "CL", "CO", "CR", "CY", "CZ", "DE", "DK", "DO", "DZ", "EC", "EE", "EG", "ES", "FI", "FR", "GB", "GR", "GT", "HK", "HN", "HU", "ID", "IE", "IL", "IN", "IS", "IT", "JO", "JP", "KW", "LB", "LI", "LT", "LU", "LV", "MA", "MC", "MT", "MY", "NI", "NL", "NO", "NZ", "OM", "PA", "PE", "PH", "PL", "PS", "PT", "PY", "QA", "RO", "SA", "SE", "SG", "SK", "SV", "TH", "TN", "TR", "TW", "US", "UY", "VN", "ZA"], "disc_number": 1, "duration_ms": 106280, "explicit": false, "external_ids": {"isrc": "US3M51109701"}, "external_urls": {"spotify": "https://open.spotify.com/track/2q6fxAvSpqXR4jx9Ne7RGz"}, "href": "https://api.spotify.com/v1/tracks/2q6fxAvSpqXR4jx9Ne7RGz", "id": "2q6fxAvSpqXR4jx9Ne7RGz", "is_local": false, "name": "Main Title - From The \"Game Of Thrones\" Soundtrack", "popularity": 61, "preview_url": null, "track_number": 1, "type": "track", "uri": "spotify:track:2q6fxAvSpqXR4jx9Ne7RGz"}, {"album": {"album_type": "album", "artists": [{"external_urls": {"spotify": "https://open.spotify.com/artist/1hCkSJcXREhrodeIHQdav8"}, "href": "https://api.spotify.com/v1/artists/1hCkSJcXREhrodeIHQdav8", "id": "1hCkSJcXREhrodeIHQdav8", "name": "Ramin Djawadi", "type": "artist", "uri": "spotify:artist:1hCkSJcXREhrodeIHQdav8"}], "available_markets": ["AD", "AE", "AR", "AT", "AU", "BE", "BG", "BH", "BO", "BR", "CA", "CH", "CL", "CO", "CR", "CY", "CZ", "DE", "DK", "DO", "DZ", "EC", "EE", "EG", "ES", "FI", "FR", "GB", "GR", "GT", "HK", "HN", "HU", "ID", "IE", "IL", "IN", "IS", "IT", "JO", "JP", "KW", "LB", "LI", "LT", "LU", "LV", "MA", "MC", "MT", "MX", "MY", "NI", "NL", "NO", "NZ", "OM", "PA", "PE", "PH", "PL", "PS", "PT", "PY", "QA", "RO", "SA", "SE", "SG", "SK", "SV", "TH", "TN", "TR", "TW", "US", "UY", "VN", "ZA"], "external_urls": {"spotify": "https://open.spotify.com/album/43pttVYo7IjBvive3uebVF"}, "href": "https://api.spotify.com/v1/albums/43pttVYo7IjBvive3uebVF", "id": "43pttVYo7IjBvive3uebVF", "images": [{"height": 640, "url": "https://i.scdn.co/image/ab67616d0000b2738129e2367c42697ba06a5a2e", "width": 640}, {"height": 300, "url": "https://i.scdn.co/image/ab67616d00001e028129e2367c42697ba06a5a2e", "width": 300}, {"height": 64, "url": "https://i.scdn.co/image/ab67616d000048518129e2367c42697ba06a5a2e", "width": 64}], "name": "Westworld: Season 1 (Music from the HBO Series)", "release_date": "2016-12-05", "release_date_precision": "day", "total_tracks": 34, "type": "album", "uri": "spotify:album:43pttVYo7IjBvive3uebVF"}, "artists": [{"external_urls": {"spotify": "https://open.spotify.com/artist/1hCkSJcXREhrodeIHQdav8"}, "href": "https://api.spotify.com/v1/artists/1hCkSJcXREhrodeIHQdav8", "id": "1hCkSJcXREhrodeIHQdav8", "name": "Ramin Djawadi", "type": "artist", "uri": "spotify:artist:1hCkSJcXREhrodeIHQdav8"}], "available_markets": ["AD", "AE", "AR", "AT", "AU", "BE", "BG", "BH", "BO", "BR", "CA", "CH", "CL", "CO", "CR", "CY", "CZ", "DE", "DK", "DO", "DZ", "EC", "EE", "EG", "ES", "FI", "FR", "GB", "GR", "GT", "HK", "HN", "HU", "ID", "IE", "IL", "IN", "IS", "IT", "JO", "JP", "KW", "LB", "LI", "LT", "LU", "LV", "MA", "MC", "MT", "MX", "MY", "NI", "NL", "NO", "NZ", "OM", "PA", "PE", "PH", "PL", "PS", "PT", "PY", "QA", "RO", "SA", "SE", "SG", "SK", "SV", "TH", "TN", "TR", "TW", "US", "UY", "VN", "ZA"], "disc_number": 1, "duration_ms": 101461, "explicit": false, "external_ids": {"isrc": "USNLR1600920"}, "external_urls": {"spotify": "https://open.spotify.com/track/2sw8teIvVMRZKKYD5p795f"}, "href": "https://api.spotify.com/v1/tracks/2sw8teIvVMRZKKYD5p795f", "id": "2sw8teIvVMRZKKYD5p795f", "is_local": false, "name": "Main Title Theme - Westworld", "popularity": 57, "preview_url": "https://p.scdn.co/mp3-preview/836b9da51cefcb07a9af8ef8d7a99479073d43b5?cid=348f94d3a73241188b2a89c91e1cfaee", "track_number": 1, "type": "track", "uri": "spotify:track:2sw8teIvVMRZKKYD5p795f"}, {"album": {"album_type": "album", "artists": [{"external_urls": {"spotify": "https://open.spotify.com/artist/1hCkSJcXREhrodeIHQdav8"}, "href": "https://api.spotify.com/v1/artists/1hCkSJcXREhrodeIHQdav8", "id": "1hCkSJcXREhrodeIHQdav8", "name": "Ramin Djawadi", "type": "artist", "uri": "spotify:artist:1hCkSJcXREhrodeIHQdav8"}], "available_markets": ["AD", "AE", "AR", "AT", "AU", "BE", "BG", "BH", "BO", "BR", "CA", "CH", "CL", "CO", "CR", "CY", "CZ", "DE", "DK", "DO", "DZ", "EC", "EE", "EG", "ES", "FI", "FR", "GB", "GR", "GT", "HK", "HN", "HU", "ID", "IE", "IL", "IN", "IS", "IT", "JO", "JP", "KW", "LB", "LI", "LT", "LU", "LV", "MA", "MC", "MT", "MX", "MY", "NI", "NL", "NO", "NZ", "OM", "PA", "PE", "PH", "PL", "PS", "PT", "PY", "QA", "RO", "SA", "SE", "SG", "SK", "SV", "TH", "TN", "TR", "TW", "US", "UY", "VN", "ZA"], "external_urls": {"spotify": "https://open.spotify.com/album/43pttVYo7IjBvive3uebVF"}, "href": "https://api.spotify.com/v1/albums/43pttVYo7IjBvive3uebVF", "id": "43pttVYo7IjBvive3uebVF", "images": [{"height": 640, "url": "https://i.scdn.co/image/ab67616d0000b2738129e2367c42697ba06a5a2e", "width": 640}, {"height": 300, "url": "https://i.scdn.co/image/ab67616d00001e028129e2367c42697ba06a5a2e", "width": 300}, {"height": 64, "url": "https://i.scdn.co/image/ab67616d000048518129e2367c42697ba06a5a2e", "width": 64}], "name": "Westworld: Season 1 (Music from the HBO Series)", "release_date": "2016-12-05", "release_date_precision": "day", "total_tracks": 34, "type": "album", "uri": "spotify:album:43pttVYo7IjBvive3uebVF"}, "artists": [{"external_urls": {"spotify": "https://open.spotify.com/artist/1hCkSJcXREhrodeIHQdav8"}, "href": "https://api.spotify.com/v1/artists/1hCkSJcXREhrodeIHQdav8", "id": "1hCkSJcXREhrodeIHQdav8", "name": "Ramin Djawadi", "type": "artist", "uri": "spotify:artist:1hCkSJcXREhrodeIHQdav8"}], "available_markets": ["AD", "AE", "AR", "AT", "AU", "BE", "BG", "BH", "BO", "BR", "CA", "CH", "CL", "CO", "CR", "CY", "CZ", "DE", "DK", "DO", "DZ", "EC", "EE", "EG", "ES", "FI", "FR", "GB", "GR", "GT", "HK", "HN", "HU", "ID", "IE", "IL", "IN", "IS", "IT", "JO", "JP", "KW", "LB", "LI", "LT", "LU", "LV", "MA", "MC", "MT", "MX", "MY", "NI", "NL", "NO", "NZ", "OM", "PA", "PE", "PH", "PL", "PS", "PT", "PY", "QA", "RO", "SA", "SE", "SG", "SK", "SV", "TH", "TN", "TR", "TW", "US", "UY", "VN", "ZA"], "disc_number": 1, "duration_ms": 344017, "explicit": false, "external_ids": {"isrc": "USNLR1600922"}, "external_urls": {"spotify": "https://open.spotify.com/track/6rSVuRt7xl4GsEQv4tphSl"}, "href": "https://api.spotify.com/v1/tracks/6rSVuRt7xl4GsEQv4tphSl", "id": "6rSVuRt7xl4GsEQv4tphSl", "is_local": false, "name": "Paint It, Black", "popularity": 56, "preview_url": "https://p.scdn.co/mp3-preview/50b507df578e2b26c8f7a6e1e198e74382bbe27b?cid=348f94d3a73241188b2a89c91e1cfaee", "track_number": 4, "type": "track", "uri": "spotify:track:6rSVuRt7xl4GsEQv4tphSl"}, {"album": {"album_type": "album", "artists": [{"external_urls": {"spotify": "https://open.spotify.com/artist/1hCkSJcXREhrodeIHQdav8"}, "href": "https://api.spotify.com/v1/artists/1hCkSJcXREhrodeIHQdav8", "id": "1hCkSJcXREhrodeIHQdav8", "name": "Ramin Djawadi", "type": "artist", "uri": "spotify:artist:1hCkSJcXREhrodeIHQdav8"}], "available_markets": ["AD", "AE", "AR", "AT", "AU", "BE", "BG", "BH", "BO", "BR", "CA", "CH", "CL", "CO", "CR", "CY", "CZ", "DE", "DK", "DO", "DZ", "EC", "EE", "EG", "ES", "FI", "FR", "GB", "GR", "GT", "HK", "HN", "HU", "ID", "IE", "IL", "IN", "IS", "IT", "JO", "JP", "KW", "LB", "LI", "LT", "LU", "LV", "MA", "MC", "MT", "MY", "NI", "NL", "NO", "NZ", "OM", "PA", "PE", "PH", "PL", "PS", "PT", "PY", "QA", "RO", "SA", "SE", "SG", "SK", "SV", "TH", "TN", "TR", "TW", "US", "UY", "VN", "ZA"], "external_urls": {"spotify": "https://open.spotify.com/album/5P9JZJW0itEaDK5RfWiSuZ"}, "href": "https://api.spotify.com/v1/albums/5P9JZJW0itEaDK5RfWiSuZ", "id": "5P9JZJW0itEaDK5RfWiSuZ", "images": [{"height": 640, "url": "https://i.scdn.co/image/ab67616d0000b273239a1395e4d595efc28af924", "width": 640}, {"height": 300, "url": "https://i.scdn.co/image/ab67616d00001e02239a1395e4d595efc28af924", "width": 300}, {"height": 64, "url": "https://i.scdn.co/image/ab67616d00004851239a1395e4d595efc28af924", "width": 64}], "name": "Game Of Thrones (Music From The HBO Series)", "release_date": "2011-01-01", "release_date_precision": "day", "total_tracks": 29, "type": "album", "uri": "spotify:album:5P9JZJW0itEaDK5RfWiSuZ"}, "artists": [{"external_urls": {"spotify": "https://open.spotify.com/artist/1hCkSJcXREhrodeIHQdav8"}, "href": "https://api.spotify.com/v1/artists/1hCkSJcXREhrodeIHQdav8", "id": "1hCkSJcXREhrodeIHQdav8", "name": "Ramin Djawadi", "type": "artist", "uri": "spotify:artist:1hCkSJcXREhrodeIHQdav8"}], "available_markets": ["AD", "AE", "AR", "AT", "AU", "BE", "BG", "BH", "BO", "BR", "CA", "CH", "CL", "CO", "CR", "CY", "CZ", "DE", "DK", "DO", "DZ", "EC", "EE", "EG", "ES", "FI", "FR", "GB", "GR", "GT", "HK", "HN", "HU", "ID", "IE", "IL", "IN", "IS", "IT", "JO", "JP", "KW", "LB", "LI", "LT", "LU", "LV", "MA", "MC", "MT", "MY", "NI", "NL", "NO", "NZ", "OM", "PA", "PE", "PH", "PL", "PS", "PT", "PY", "QA", "RO", "SA", "SE", "SG", "SK", "SV", "TH", "TN", "TR", "TW", "US", "UY", "VN", "ZA"], "disc_number": 1, "duration_ms": 187280, "explicit": false, "external_ids": {"isrc": "US3M51109703"}, "external_urls": {"spotify": "https://open.spotify.com/track/5n44Y1e8exufbm9mmAvopf"}, "href": "https://api.spotify.com/v1/tracks/5n44Y1e8exufbm9mmAvopf", "id": "5n44Y1e8exufbm9mmAvopf", "is_local": false, "name": "Goodbye Brother - From The \"Game Of Thrones\" Soundtrack", "popularity": 56, "preview_url": null, "track_number": 3, "type": "track", "uri": "spotify:track:5n44Y1e8exufbm9mmAvopf"}, {"album": {"album_type": "album", "artists": [{"external_urls": {"spotify": "https://open.spotify.com/artist/1hCkSJcXREhrodeIHQdav8"}, "href": "https://api.spotify.com/v1/artists/1hCkSJcXREhrodeIHQdav8", "id": "1hCkSJcXREhrodeIHQdav8", "name": "Ramin Djawadi", "type": "artist", "uri": "spotify:artist:1hCkSJcXREhrodeIHQdav8"}], "available_markets": ["AD", "AE", "AR", "AT", "AU", "BE", "BG", "BH", "BO", "BR", "CA", "CH", "CL", "CO", "CR", "CY", "CZ", "DE", "DK", "DO", "DZ", "EC", "EE", "EG", "ES", "FI", "FR", "GB", "GR", "GT", "HK", "HN", "HU", "ID", "IE", "IL", "IN", "IS", "IT", "JO", "JP", "KW", "LB", "LI", "LT", "LU", "LV", "MA", "MC", "MT", "MX", "MY", "NI", "NL", "NO", "NZ", "OM", "PA", "PE", "PH", "PL", "PS", "PT", "PY", "QA", "RO", "SA", "SE", "SG", "SK", "SV", "TH", "TN", "TR", "TW", "US", "UY", "VN", "ZA"], "external_urls": {"spotify": "https://open.spotify.com/album/4U6mv2dfPwbp3NQlq2CSaj"}, "href": "https://api.spotify.com/v1/albums/4U6mv2dfPwbp3NQlq2CSaj", "id": "4U6mv2dfPwbp3NQlq2CSaj", "images": [{"height": 640, "url": "https://i.scdn.co/image/ab67616d0000b273c7776da1be35430804c80c42", "width": 640}, {"height": 300, "url": "https://i.scdn.co/image/ab67616d00001e02c7776da1be35430804c80c42", "width": 300}, {"height": 64, "url": "https://i.scdn.co/image/ab67616d00004851c7776da1be35430804c80c42", "width": 64}], "name": "Westworld: Season 2 (Music From the HBO Series)", "release_date": "2018-06-25", "release_date_precision": "day", "total_tracks": 29, "type": "album", "uri": "spotify:album:4U6mv2dfPwbp3NQlq2CSaj"}, "artists": [{"external_urls": {"spotify": "https://open.spotify.com/artist/1hCkSJcXREhrodeIHQdav8"}, "href": "https://api.spotify.com/v1/artists/1hCkSJcXREhrodeIHQdav8", "id": "1hCkSJcXREhrodeIHQdav8", "name": "Ramin Djawadi", "type": "artist", "uri": "spotify:artist:1hCkSJcXREhrodeIHQdav8"}], "available_markets": ["AD", "AE", "AR", "AT", "AU", "BE", "BG", "BH", "BO", "BR", "CA", "CH", "CL", "CO", "CR", "CY", "CZ", "DE", "DK", "DO", "DZ", "EC", "EE", "EG", "ES", "FI", "FR", "GB", "GR", "GT", "HK", "HN", "HU", "ID", "IE", "IL", "IN", "IS", "IT", "JO", "JP", "KW", "LB", "LI", "LT", "LU", "LV", "MA", "MC", "MT", "MX", "MY", "NI", "NL", "NO", "NZ", "OM", "PA", "PE", "PH", "PL", "PS", "PT", "PY", "QA", "RO", "SA", "SE", "SG", "SK", "SV", "TH", "TN", "TR", "TW", "US", "UY", "VN", "ZA"], "disc_number": 1, "duration_ms": 204628, "explicit": false, "external_ids": {"isrc": "USNLR1800187"}, "external_urls": {"spotify": "https://open.spotify.com/track/0OSfLPEQb1PLL0Q0C2xZVE"}, "href": "https://api.spotify.com/v1/tracks/0OSfLPEQb1PLL0Q0C2xZVE", "id": "0OSfLPEQb1PLL0Q0C2xZVE", "is_local": false, "name": "Heart-Shaped Box (Orchestral)", "popularity": 53, "preview_url": "https://p.scdn.co/mp3-preview/b22a2f9b14eeab0e928e4faeab3ec0735d62448d?cid=348f94d3a73241188b2a89c91e1cfaee", "track_number": 10, "type": "track", "uri": "spotify:track:0OSfLPEQb1PLL0Q0C2xZVE"}, {"album": {"album_type": "album", "artists": [{"external_urls": {"spotify": "https://open.spotify.com/artist/1hCkSJcXREhrodeIHQdav8"}, "href": "https://api.spotify.com/v1/artists/1hCkSJcXREhrodeIHQdav8", "id": "1hCkSJcXREhrodeIHQdav8", "name": "Ramin Djawadi", "type": "artist", "uri": "spotify:artist:1hCkSJcXREhrodeIHQdav8"}], "available_markets": ["AD", "AE", "AR", "AT", "AU", "BE", "BG", "BH", "BO", "BR", "CA", "CH", "CL", "CO", "CR", "CY", "CZ", "DE", "DK", "DO", "DZ", "EC", "EE", "EG", "ES", "FI", "FR", "GB", "GR", "GT", "HK", "HN", "HU", "ID", "IE", "IL", "IN", "IS", "IT", "JO", "JP", "KW", "LB", "LI", "LT", "LU", "LV", "MA", "MC", "MT", "MX", "MY", "NI", "NL", "NO", "NZ", "OM", "PA", "PE", "PH", "PL", "PS", "PT", "PY", "QA", "RO", "SA", "SE", "SG", "SK", "SV", "TH", "TN", "TR", "TW", "US", "UY", "VN", "ZA"], "external_urls": {"spotify": "https://open.spotify.com/album/3AOeatEAPjy1CKtdkaXaDq"}, "href": "https://api.spotify.com/v1/albums/3AOeatEAPjy1CKtdkaXaDq", "id": "3AOeatEAPjy1CKtdkaXaDq", "images": [{"height": 640, "url": "https://i.scdn.co/image/ab67616d0000b273536f3b6f6b46e6e97742673b", "width": 640}, {"height": 300, "url": "https://i.scdn.co/image/ab67616d00001e02536f3b6f6b46e6e97742673b", "width": 300}, {"height": 64, "url": "https://i.scdn.co/image/ab67616d00004851536f3b6f6b46e6e97742673b", "width": 64}], "name": "Game Of Thrones: Season 8 (Music from the HBO Series)", "release_date": "2019-05-19", "release_date_precision": "day", "total_tracks": 32, "type": "album", "uri": "spotify:album:3AOeatEAPjy1CKtdkaXaDq"}, "artists": [{"external_urls": {"spotify": "https://open.spotify.com/artist/1hCkSJcXREhrodeIHQdav8"}, "href": "https://api.spotify.com/v1/artists/1hCkSJcXREhrodeIHQdav8", "id": "1hCkSJcXREhrodeIHQdav8", "name": "Ramin Djawadi", "type": "artist", "uri": "spotify:artist:1hCkSJcXREhrodeIHQdav8"}, {"external_urls": {"spotify": "https://open.spotify.com/artist/0BEI7i5sgUuivcfwXLzFmM"}, "href": "https://api.spotify.com/v1/artists/0BEI7i5sgUuivcfwXLzFmM", "id": "0BEI7i5sgUuivcfwXLzFmM", "name": "Serj Tankian", "type": "artist", "uri": "spotify:artist:0BEI7i5sgUuivcfwXLzFmM"}], "available_markets": ["AD", "AE", "AR", "AT", "AU", "BE", "BG", "BH", "BO", "BR", "CA", "CH", "CL", "CO", "CR", "CY", "CZ", "DE", "DK", "DO", "DZ", "EC", "EE", "EG", "ES", "FI", "FR", "GB", "GR", "GT", "HK", "HN", "HU", "ID", "IE", "IL", "IN", "IS", "IT", "JO", "JP", "KW", "LB", "LI", "LT", "LU", "LV", "MA", "MC", "MT", "MX", "MY", "NI", "NL", "NO", "NZ", "OM", "PA", "PE", "PH", "PL", "PS", "PT", "PY", "QA", "RO", "SA", "SE", "SG", "SK", "SV", "TH", "TN", "TR", "TW", "US", "UY", "VN", "ZA"], "disc_number": 1, "duration_ms": 224305, "explicit": false, "external_ids": {"isrc": "USNLR1900248"}, "external_urls": {"spotify": "https://open.spotify.com/track/0CHvs1UmxA90B2apIpbWCC"}, "href": "https://api.spotify.com/v1/tracks/0CHvs1UmxA90B2apIpbWCC", "id": "0CHvs1UmxA90B2apIpbWCC", "is_local": false, "name": "The Rains of Castamere", "popularity": 57, "preview_url": "https://p.scdn.co/mp3-preview/a8aa24056b57474e8b5fabb59414da8dc1293a24?cid=348f94d3a73241188b2a89c91e1cfaee", "track_number": 2, "type": "track", "uri": "spotify:track:0CHvs1UmxA90B2apIpbWCC"}], "limit": 10, "next": "https://api.spotify.com/v1/search?query=Ramin+Djawadi&type=track&offset=10&limit=10", "offset": 0, "previous": null, "total": 1116}}