{"tracks": {"href": "https://api.spotify.com/v1/search?query=m%C3%A4go+de+oz&type=track&offset=0&limit=10", "items": [{"album": {"album_type": "album", "artists": [{"external_urls": {"spotify": "https://open.spotify.com/artist/0LyfQWJT6nXafLPZqxe9Of"}, "href": "https://api.spotify.com/v1/artists/0LyfQWJT6nXafLPZqxe9Of", "id": "0LyfQWJT6nXafLPZqxe9Of", "name": "Various Artists", "type": "artist", "uri": "spotify:artist:0LyfQWJT6nXafLPZqxe9Of"}], "available_markets": ["AD", "AE", "AR", "AT", "AU", "BE", "BG", "BH", "BO", "BR", "CA", "CH", "CL", "CO", "CR", "CY", "CZ", "DE", "DK", "DO", "DZ", "EC", "EE", "EG", "ES", "FI", "FR", "GB", "GR", "GT", "HK", "HN", "HU", "ID", "IE", "IL", "IN", "IS", "IT", "JO", "JP", "KW", "LB", "LI", "LT", "LU", "LV", "MA", "MC", "MT", "MX", "MY", "NI", "NL", "NO", "NZ", "OM", "PA", "PE", "PH", "PL", "PS", "PT", "PY", "QA", "RO", "SA", "SE", "SG", "SK", "SV", "TH", "TN", "TR", "TW", "US", "UY", "VN", "ZA"], "external_urls": {"spotify": "https://open.spotify.com/album/34t4UD5vVb88VJpUfXwbIo"}, "href": "https://api.spotify.com/v1/albums/34t4UD5vVb88VJpUfXwbIo", "id": "34t4UD5vVb88VJpUfXwbIo", "images": [{"height": 640, "url": "https://i.scdn.co/image/ab67616d0000b273478074ebf092e5c13bc5b38a", "width": 640}, {"height": 300, "url": "https://i.scdn.co/image/ab67616d00001e02478074ebf092e5c13bc5b38a", "width": 300}, {"height": 64, "url": "https://i.scdn.co/image/ab67616d00004851478074ebf092e5c13bc5b38a", "width": 64}], "name": "Hard Rock Latino", "release_date": "2020-06-08", "release_date_precision": "day", "total_tracks": 25, "type": "album", "uri": "spotify:album:34t4UD5vVb88VJpUfXwbIo"}, "artists": [{"external_urls": {"spotify": "https://open.spotify.com/artist/5ZNxiPcbKgaNcBrERMpqeu"}, "href": "https://api.spotify.com/v1/artists/5ZNxiPcbKgaNcBrERMpqeu", "id": "5ZNxiPcbKgaNcBrERMpqeu", "name": "M\u00e4go de Oz", "type": "artist", "uri": "spotify:artist:5ZNxiPcbKgaNcBrERMpqeu"}], "available_markets": ["AD", "AE", "AR", "AT", "AU", "BE", "BG", "BH", "BO", "BR", "CA", "CH", "CL", "CO", "CR", "CY", "CZ", "DE", "DK", "DO", "DZ", "EC", "EE", "EG", "ES", "FI", "FR", "GB", "GR", "GT", "HK", "HN", "HU", "ID", "IE", "IL", "IN", "IS", "IT", "JO", "JP", "KW", "LB", "LI", "LT", "LU", "LV", "MA", "MC", "MT", "MX", "MY", "NI", "NL", "NO", "NZ", "OM", "PA", "PE", "PH", "PL", "PS", "PT", "PY", "QA", "RO", "SA", "SE", "SG", "SK", "SV", "TH", "TN", "TR", "TW", "US", "UY", "VN", "ZA"], "disc_number": 1, "duration_ms": 216573, "explicit": false, "external_ids": {"isrc": "ES5151000221"}, "external_urls": {"spotify": "https://open.spotify.com/track/7gAwXWHqjjqMokYhNTqp7r"}, "href": "https://api.spotify.com/v1/tracks/7gAwXWHqjjqMokYhNTqp7r", "id": "7gAwXWHqjjqMokYhNTqp7r", "is_local": false, "name": "Vodka and Roll", "popularity": 2, "preview_url": "https://p.scdn.co/mp3-preview/e3bfe50f18d7409786600d4d7df4c780696dd2d0?cid=348f94d3a73241188b2a89c91e1cfaee", "track_number": 19, "type": "track", "uri": "spotify:track:7gAwXWHqjjqMokYhNTqp7r"}, {"album": {"album_type": "album", "artists": [{"external_urls": {"spotify": "https://open.spotify.com/artist/5ZNxiPcbKgaNcBrERMpqeu"}, "href": "https://api.spotify.com/v1/artists/5ZNxiPcbKgaNcBrERMpqeu", "id": "5ZNxiPcbKgaNcBrERMpqeu", "name": "M\u00e4go de Oz", "type": "artist", "uri": "spotify:artist:5ZNxiPcbKgaNcBrERMpqeu"}], "available_markets": ["AD", "AE", "AR", "AT", "AU", "BE", "BG", "BH", "BO", "BR", "CA", "CH", "CL", "CO", "CR", "CY", "CZ", "DE", "DK", "DO", "DZ", "EC", "EE", "EG", "ES", "FI", "FR", "GB", "GR", "GT", "HK", "HN", "HU", "ID", "IE", "IL", "IN", "IS", "IT", "JO", "JP", "KW", "LB", "LI", "LT", "LU", "LV", "MA", "MC", "MT", "MX", "MY", "NI", "NL", "NO", "NZ", "OM", "PA", "PE", "PH", "PL", "PS", "PT", "PY", "QA", "RO", "SA", "SE", "SG", "SK", "SV", "TH", "TN", "TR", "TW", "US", "UY", "VN", "ZA"], "external_urls": {"spotify": "https://open.spotify.com/album/1Da87nj7hlkdRAh9Zf5jp7"}, "href": "https://api.spotify.com/v1/albums/1Da87nj7hlkdRAh9Zf5jp7", "id": "1Da87nj7hlkdRAh9Zf5jp7", "images": [{"height": 640, "url": "https://i.scdn.co/image/ab67616d0000b2732d53712ff7eb4d40d995a666", "width": 640}, {"height": 300, "url": "https://i.scdn.co/image/ab67616d00001e022d53712ff7eb4d40d995a666", "width": 300}, {"height": 64, "url": "https://i.scdn.co/image/ab67616d000048512d53712ff7eb4d40d995a666", "width": 64}], "name": "La Leyenda De La Mancha", "release_date": "1998", "release_date_precision": "year", "total_tracks": 13, "type": "album", "uri": "spotify:album:1Da87nj7hlkdRAh9Zf5jp7"}, "artists": [{"external_urls": {"spotify": "https://open.spotify.com/artist/5ZNxiPcbKgaNcBrERMpqeu"}, "href": "https://api.spotify.com/v1/artists/5ZNxiPcbKgaNcBrERMpqeu", "id": "5ZNxiPcbKgaNcBrERMpqeu", "name": "M\u00e4go de Oz", "type": "artist", "uri": "spotify:artist:5ZNxiPcbKgaNcBrERMpqeu"}], "available_markets": ["AD", "AE", "AR", "AT", "AU", "BE", "BG", "BH", "BO", "BR", "CA", "CH", "CL", "CO", "CR", "CY", "CZ", "DE", "DK", "DO", "DZ", "EC", "EE", "EG", "ES", "FI", "FR", "GB", "GR", "GT", "HK", "HN", "HU", "ID", "IE", "IL", "IN", "IS", "IT", "JO", "JP", "KW", "LB", "LI", "LT", "LU", "LV", "MA", "MC", "MT", "MX", "MY", "NI", "NL", "NO", "NZ", "OM", "PA", "PE", "PH", "PL", "PS", "PT", "PY", "QA", "RO", "SA", "SE", "SG", "SK", "SV", "TH", "TN", "TR", "TW", "US", "UY", "VN", "ZA"], "disc_number": 1, "duration_ms": 251681, "explicit": false, "external_ids": {"isrc": "ES6880300140"}, "external_urls": {"spotify": "https://open.spotify.com/track/19vhfSUgVJO2enJ6XidUGO"}, "href": "https://api.spotify.com/v1/tracks/19vhfSUgVJO2enJ6XidUGO", "id": "19vhfSUgVJO2enJ6XidUGO", "is_local": false, "name": "Molinos De Viento", "popularity": 66, "preview_url": "https://p.scdn.co/mp3-preview/12bf5e540d213608ee7431bc1b9b5bc0fd3dae4d?cid=348f94d3a73241188b2a89c91e1cfaee", "track_number": 5, "type": "track", "uri": "spotify:track:19vhfSUgVJO2enJ6XidUGO"}, {"album": {"album_type": "album", "artists": [{"external_urls": {"spotify": "https://open.spotify.com/artist/5ZNxiPcbKgaNcBrERMpqeu"}, "href": "https://api.spotify.com/v1/artists/5ZNxiPcbKgaNcBrERMpqeu", "id": "5ZNxiPcbKgaNcBrERMpqeu", "name": "M\u00e4go de Oz", "type": "artist", "uri": "spotify:artist:5ZNxiPcbKgaNcBrERMpqeu"}], "available_markets": ["AD", "AE", "AR", "AT", "AU", "BE", "BG", "BH", "BO", "BR", "CA", "CH", "CL", "CO", "CR", "CY", "CZ", "DE", "DK", "DO", "DZ", "EC", "EE", "EG", "ES", "FI", "FR", "GB", "GR", "GT", "HK", "HN", "HU", "ID", "IE", "IL", "IN", "IS", "IT", "JO", "JP", "KW", "LB", "LI", "LT", "LU", "LV", "MA", "MC", "MT", "MX", "MY", "NI", "NL", "NO", "NZ", "OM", "PA", "PE", "PH", "PL", "PS", "PT", "PY", "QA", "RO", "SA", "SE", "SG", "SK", "SV", "TH", "TN", "TR", "TW", "US", "UY", "VN", "ZA"], "external_urls": {"spotify": "https://open.spotify.com/album/3Eubo97y5NcXWz7PsCzHIT"}, "href": "https://api.spotify.com/v1/albums/3Eubo97y5NcXWz7PsCzHIT", "id": "3Eubo97y5NcXWz7PsCzHIT", "images": [{"height": 640, "url": "https://i.scdn.co/image/ab67616d0000b2733e782d96dc4cbe7950a274a9", "width": 640}, {"height": 300, "url": "https://i.scdn.co/image/ab67616d00001e023e782d96dc4cbe7950a274a9", "width": 300}, {"height": 64, "url": "https://i.scdn.co/image/ab67616d000048513e782d96dc4cbe7950a274a9", "width": 64}], "name": "Finisterra", "release_date": "2000", "release_date_precision": "year", "total_tracks": 20, "type": "album", "uri": "spotify:album:3Eubo97y5NcXWz7PsCzHIT"}, "artists": [{"external_urls": {"spotify": "https://open.spotify.com/artist/5ZNxiPcbKgaNcBrERMpqeu"}, "href": "https://api.spotify.com/v1/artists/5ZNxiPcbKgaNcBrERMpqeu", "id": "5ZNxiPcbKgaNcBrERMpqeu", "name": "M\u00e4go de Oz", "type": "artist", "uri": "spotify:artist:5ZNxiPcbKgaNcBrERMpqeu"}], "available_markets": ["AD", "AE", "AR", "AT", "AU", "BE", "BG", "BH", "BO", "BR", "CA", "CH", "CL", "CO", "CR", "CY", "CZ", "DE", "DK", "DO", "DZ", "EC", "EE", "EG", "ES", "FI", "FR", "GB", "GR", "GT", "HK", "HN", "HU", "ID", "IE", "IL", "IN", "IS", "IT", "JO", "JP", "KW", "LB", "LI", "LT", "LU", "LV", "MA", "MC", "MT", "MX", "MY", "NI", "NL", "NO", "NZ", "OM", "PA", "PE", "PH", "PL", "PS", "PT", "PY", "QA", "RO", "SA", "SE", "SG", "SK", "SV", "TH", "TN", "TR", "TW", "US", "UY", "VN", "ZA"], "disc_number": 2, "duration_ms": 296751, "explicit": false, "external_ids": {"isrc": "ES6880400795"}, "external_urls": {"spotify": "https://open.spotify.com/track/02dphTJYUQ9pmdNC52iyOz"}, "href": "https://api.spotify.com/v1/tracks/02dphTJYUQ9pmdNC52iyOz", "id": "02dphTJYUQ9pmdNC52iyOz", "is_local": false, "name": "Fiesta Pagana", "popularity": 67, "preview_url": "https://p.scdn.co/mp3-preview/4a0907e26d57edb058d305734ffde370c70f777f?cid=348f94d3a73241188b2a89c91e1cfaee", "track_number": 1, "type": "track", "uri": "spotify:track:02dphTJYUQ9pmdNC52iyOz"}, {"album": {"album_type": "album", "artists": [{"external_urls": {"spotify": "https://open.spotify.com/artist/5ZNxiPcbKgaNcBrERMpqeu"}, "href": "https://api.spotify.com/v1/artists/5ZNxiPcbKgaNcBrERMpqeu", "id": "5ZNxiPcbKgaNcBrERMpqeu", "name": "M\u00e4go de Oz", "type": "artist", "uri": "spotify:artist:5ZNxiPcbKgaNcBrERMpqeu"}], "available_markets": ["AD", "AE", "AR", "AT", "AU", "BE", "BG", "BH", "BO", "BR", "CA", "CH", "CL", "CO", "CR", "CY", "CZ", "DE", "DK", "DO", "DZ", "EC", "EE", "EG", "ES", "FI", "FR", "GB", "GR", "GT", "HK", "HN", "HU", "ID", "IE", "IL", "IN", "IS", "IT", "JO", "JP", "KW", "LB", "LI", "LT", "LU", "LV", "MA", "MC", "MT", "MX", "MY", "NI", "NL", "NO", "NZ", "OM", "PA", "PE", "PH", "PL", "PS", "PT", "PY", "QA", "RO", "SA", "SE", "SG", "SK", "SV", "TH", "TN", "TR", "TW", "US", "UY", "VN", "ZA"], "external_urls": {"spotify": "https://open.spotify.com/album/3Eubo97y5NcXWz7PsCzHIT"}, "href": "https://api.spotify.com/v1/albums/3Eubo97y5NcXWz7PsCzHIT", "id": "3Eubo97y5NcXWz7PsCzHIT", "images": [{"height": 640, "url": "https://i.scdn.co/image/ab67616d0000b2733e782d96dc4cbe7950a274a9", "width": 640}, {"height": 300, "url": "https://i.scdn.co/image/ab67616d00001e023e782d96dc4cbe7950a274a9", "width": 300}, {"height": 64, "url": "https://i.scdn.co/image/ab67616d000048513e782d96dc4cbe7950a274a9", "width": 64}], "name": "Finisterra", "release_date": "2000", "release_date_precision": "year", "total_tracks": 20, "type": "album", "uri": "spotify:album:3Eubo97y5NcXWz7PsCzHIT"}, "artists": [{"external_urls": {"spotify": "https://open.spotify.com/artist/5ZNxiPcbKgaNcBrERMpqeu"}, "href": "https://api.spotify.com/v1/artists/5ZNxiPcbKgaNcBrERMpqeu", "id": "5ZNxiPcbKgaNcBrERMpqeu", "name": "M\u00e4go de Oz", "type": "artist", "uri": "spotify:artist:5ZNxiPcbKgaNcBrERMpqeu"}], "available_markets": ["AD", "AE", "AR", "AT", "AU", "BE", "BG", "BH", "BO", "BR", "CA", "CH", "CL", "CO", "CR", "CY", "CZ", "DE", "DK", "DO", "DZ", "EC", "EE", "EG", "ES", "FI", "FR", "GB", "GR", "GT", "HK", "HN", "HU", "ID", "IE", "IL", "IN", "IS", "IT", "JO", "JP", "KW", "LB", "LI", "LT", "LU", "LV", "MA", "MC", "MT", "MX", "MY", "NI", "NL", "NO", "NZ", "OM", "PA", "PE", "PH", "PL", "PS", "PT", "PY", "QA", "RO", "SA", "SE", "SG", "SK", "SV", "TH", "TN", "TR", "TW", "US", "UY", "VN", "ZA"], "disc_number": 1, "duration_ms": 313097, "explicit": false, "external_ids": {"isrc": "ES6880400788"}, "external_urls": {"spotify": "https://open.spotify.com/track/0dQPkfweyWDzZ20Auq3F14"}, "href": "https://api.spotify.com/v1/tracks/0dQPkfweyWDzZ20Auq3F14", "id": "0dQPkfweyWDzZ20Auq3F14", "is_local": false, "name": "La danza del fuego", "popularity": 60, "preview_url": "https://p.scdn.co/mp3-preview/1d498a08a56271769504a0fb0a35110c5ad18b9a?cid=348f94d3a73241188b2a89c91e1cfaee", "track_number": 4, "type": "track", "uri": "spotify:track:0dQPkfweyWDzZ20Auq3F14"}, {"album": {"album_type": "album", "artists": [{"external_urls": {"spotify": "https://open.spotify.com/artist/5ZNxiPcbKgaNcBrERMpqeu"}, "href": "https://api.spotify.com/v1/artists/5ZNxiPcbKgaNcBrERMpqeu", "id": "5ZNxiPcbKgaNcBrERMpqeu", "name": "M\u00e4go de Oz", "type": "artist", "uri": "spotify:artist:5ZNxiPcbKgaNcBrERMpqeu"}], "available_markets": ["AD", "AE", "AR", "AT", "AU", "BE", "BG", "BH", "BO", "BR", "CA", "CH", "CL", "CO", "CR", "CY", "CZ", "DE", "DK", "DO", "DZ", "EC", "EE", "EG", "ES", "FI", "FR", "GB", "GR", "GT", "HK", "HN", "HU", "ID", "IE", "IL", "IN", "IS", "IT", "JO", "JP", "KW", "LB", "LI", "LT", "LU", "LV", "MA", "MC", "MT", "MX", "MY", "NI", "NL", "NO", "NZ", "OM", "PA", "PE", "PH", "PL", "PS", "PT", "PY", "QA", "RO", "SA", "SE", "SG", "SK", "SV", "TH", "TN", "TR", "TW", "US", "UY", "VN", "ZA"], "external_urls": {"spotify": "https://open.spotify.com/album/3Eubo97y5NcXWz7PsCzHIT"}, "href": "https://api.spotify.com/v1/albums/3Eubo97y5NcXWz7PsCzHIT", "id": "3Eubo97y5NcXWz7PsCzHIT", "images": [{"height": 640, "url": "https://i.scdn.co/image/ab67616d0000b2733e782d96dc4cbe7950a274a9", "width": 640}, {"height": 300, "url": "https://i.scdn.co/image/ab67616d00001e023e782d96dc4cbe7950a274a9", "width": 300}, {"height": 64, "url": "https://i.scdn.co/image/ab67616d000048513e782d96dc4cbe7950a274a9", "width": 64}], "name": "Finisterra", "release_date": "2000", "release_date_precision": "year", "total_tracks": 20, "type": "album", "uri": "spotify:album:3Eubo97y5NcXWz7PsCzHIT"}, "artists": [{"external_urls": {"spotify": "https://open.spotify.com/artist/5ZNxiPcbKgaNcBrERMpqeu"}, "href": "https://api.spotify.com/v1/artists/5ZNxiPcbKgaNcBrERMpqeu", "id": "5ZNxiPcbKgaNcBrERMpqeu", "name": "M\u00e4go de Oz", "type": "artist", "uri": "spotify:artist:5ZNxiPcbKgaNcBrERMpqeu"}], "available_markets": ["AD", "AE", "AR", "AT", "AU", "BE", "BG", "BH", "BO", "BR", "CA", "CH", "CL", "CO", "CR", "CY", "CZ", "DE", "DK", "DO", "DZ", "EC", "EE", "EG", "ES", "FI", "FR", "GB", "GR", "GT", "HK", "HN", "HU", "ID", "IE", "IL", "IN", "IS", "IT", "JO", "JP", "KW", "LB", "LI", "LT", "LU", "LV", "MA", "MC", "MT", "MX", "MY", "NI", "NL", "NO", "NZ", "OM", "PA", "PE", "PH", "PL", "PS", "PT", "PY", "QA", "RO", "SA", "SE", "SG", "SK", "SV", "TH", "TN", "TR", "TW", "US", "UY", "VN", "ZA"], "disc_number": 1, "duration_ms": 272532, "explicit": false, "external_ids": {"isrc": "ES6880400789"}, "external_urls": {"spotify": "https://open.spotify.com/track/5Q2uU5NGcS0mKwmgF28kRZ"}, "href": "https://api.spotify.com/v1/tracks/5Q2uU5NGcS0mKwmgF28kRZ", "id": "5Q2uU5NGcS0mKwmgF28kRZ", "is_local": false, "name": "Haste Que El Cuerpo Aguante", "popularity": 60, "preview_url": "https://p.scdn.co/mp3-preview/3df349eee68454b66ce731c0947b6c23a01cb764?cid=348f94d3a73241188b2a89c91e1cfaee", "track_number": 5, "type": "track", "uri": "spotify:track:5Q2uU5NGcS0mKwmgF28kRZ"}, {"album": {"album_type": "album", "artists": [{"external_urls": {"spotify": "https://open.spotify.com/artist/5ZNxiPcbKgaNcBrERMpqeu"}, "href": "https://api.spotify.com/v1/artists/5ZNxiPcbKgaNcBrERMpqeu", "id": "5ZNxiPcbKgaNcBrERMpqeu", "name": "M\u00e4go de Oz", "type": "artist", "uri": "spotify:artist:5ZNxiPcbKgaNcBrERMpqeu"}], "available_markets": ["AD", "AE", "AR", "AT", "AU", "BE", "BG", "BH", "BO", "BR", "CA", "CH", "CL", "CO", "CR", "CY", "CZ", "DE", "DK", "DO", "DZ", "EC", "EE", "EG", "ES", "FI", "FR", "GB", "GR", "GT", "HK", "HN", "HU", "ID", "IE", "IL", "IN", "IS", "IT", "JO", "JP", "KW", "LB", "LI", "LT", "LU", "LV", "MA", "MC", "MT", "MX", "MY", "NI", "NL", "NO", "NZ", "OM", "PA", "PE", "PH", "PL", "PS", "PT", "PY", "QA", "RO", "SA", "SE", "SG", "SK", "SV", "TH", "TN", "TR", "TW", "US", "UY", "VN", "ZA"], "external_urls": {"spotify": "https://open.spotify.com/album/2sZNqYRgnogT8JhVpgoiq8"}, "href": "https://api.spotify.com/v1/albums/2sZNqYRgnogT8JhVpgoiq8", "id": "2sZNqYRgnogT8JhVpgoiq8", "images": [{"height": 640, "url": "https://i.scdn.co/image/ab67616d0000b273b637449c74ec8501ed2e03aa", "width": 640}, {"height": 300, "url": "https://i.scdn.co/image/ab67616d00001e02b637449c74ec8501ed2e03aa", "width": 300}, {"height": 64, "url": "https://i.scdn.co/image/ab67616d00004851b637449c74ec8501ed2e03aa", "width": 64}], "name": "Gaia", "release_date": "2003", "release_date_precision": "year", "total_tracks": 12, "type": "album", "uri": "spotify:album:2sZNqYRgnogT8JhVpgoiq8"}, "artists": [{"external_urls": {"spotify": "https://open.spotify.com/artist/5ZNxiPcbKgaNcBrERMpqeu"}, "href": "https://api.spotify.com/v1/artists/5ZNxiPcbKgaNcBrERMpqeu", "id": "5ZNxiPcbKgaNcBrERMpqeu", "name": "M\u00e4go de Oz", "type": "artist", "uri": "spotify:artist:5ZNxiPcbKgaNcBrERMpqeu"}], "available_markets": ["AD", "AE", "AR", "AT", "AU", "BE", "BG", "BH", "BO", "BR", "CA", "CH", "CL", "CO", "CR", "CY", "CZ", "DE", "DK", "DO", "DZ", "EC", "EE", "EG", "ES", "FI", "FR", "GB", "GR", "GT", "HK", "HN", "HU", "ID", "IE", "IL", "IN", "IS", "IT", "JO", "JP", "KW", "LB", "LI", "LT", "LU", "LV", "MA", "MC", "MT", "MX", "MY", "NI", "NL", "NO", "NZ", "OM", "PA", "PE", "PH", "PL", "PS", "PT", "PY", "QA", "RO", "SA", "SE", "SG", "SK", "SV", "TH", "TN", "TR", "TW", "US", "UY", "VN", "ZA"], "disc_number": 1, "duration_ms": 280868, "explicit": false, "external_ids": {"isrc": "ES6880300103"}, "external_urls": {"spotify": "https://open.spotify.com/track/4mTsRdFE28MYlrZo8N4Es0"}, "href": "https://api.spotify.com/v1/tracks/4mTsRdFE28MYlrZo8N4Es0", "id": "4mTsRdFE28MYlrZo8N4Es0", "is_local": false, "name": "La Costa Del Silencio", "popularity": 60, "preview_url": "https://p.scdn.co/mp3-preview/9477b2075a943660c3bf2146149585430723a440?cid=348f94d3a73241188b2a89c91e1cfaee", "track_number": 5, "type": "track", "uri": "spotify:track:4mTsRdFE28MYlrZo8N4Es0"}, {"album": {"album_type": "album", "artists": [{"external_urls": {"spotify": "https://open.spotify.com/artist/5ZNxiPcbKgaNcBrERMpqeu"}, "href": "https://api.spotify.com/v1/artists/5ZNxiPcbKgaNcBrERMpqeu", "id": "5ZNxiPcbKgaNcBrERMpqeu", "name": "M\u00e4go de Oz", "type": "artist", "uri": "spotify:artist:5ZNxiPcbKgaNcBrERMpqeu"}], "available_markets": ["AD", "AE", "AR", "AT", "AU", "BE", "BG", "BH", "BO", "BR", "CA", "CH", "CL", "CO", "CR", "CY", "CZ", "DE", "DK", "DO", "DZ", "EC", "EE", "EG", "ES", "FI", "FR", "GB", "GR", "GT", "HK", "HN", "HU", "ID", "IE", "IL", "IN", "IS", "IT", "JO", "JP", "KW", "LB", "LI", "LT", "LU", "LV", "MA", "MC", "MT", "MX", "MY", "NI", "NL", "NO", "NZ", "OM", "PA", "PE", "PH", "PL", "PS", "PT", "PY", "QA", "RO", "SA", "SE", "SG", "SK", "SV", "TH", "TN", "TR", "TW", "US", "UY", "VN", "ZA"], "external_urls": {"spotify": "https://open.spotify.com/album/2sZNqYRgnogT8JhVpgoiq8"}, "href": "https://api.spotify.com/v1/albums/2sZNqYRgnogT8JhVpgoiq8", "id": "2sZNqYRgnogT8JhVpgoiq8", "images": [{"height": 640, "url": "https://i.scdn.co/image/ab67616d0000b273b637449c74ec8501ed2e03aa", "width": 640}, {"height": 300, "url": "https://i.scdn.co/image/ab67616d00001e02b637449c74ec8501ed2e03aa", "width": 300}, {"height": 64, "url": "https://i.scdn.co/image/ab67616d00004851b637449c74ec8501ed2e03aa", "width": 64}], "name": "Gaia", "release_date": "2003", "release_date_precision": "year", "total_tracks": 12, "type": "album", "uri": "spotify:album:2sZNqYRgnogT8JhVpgoiq8"}, "artists": [{"external_urls": {"spotify": "https://open.spotify.com/artist/5ZNxiPcbKgaNcBrERMpqeu"}, "href": "https://api.spotify.com/v1/artists/5ZNxiPcbKgaNcBrERMpqeu", "id": "5ZNxiPcbKgaNcBrERMpqeu", "name": "M\u00e4go de Oz", "type": "artist", "uri": "spotify:artist:5ZNxiPcbKgaNcBrERMpqeu"}], "available_markets": ["AD", "AE", "AR", "AT", "AU", "BE", "BG", "BH", "BO", "BR", "CA", "CH", "CL", "CO", "CR", "CY", "CZ", "DE", "DK", "DO", "DZ", "EC", "EE", "EG", "ES", "FI", "FR", "GB", "GR", "GT", "HK", "HN", "HU", "ID", "IE", "IL", "IN", "IS", "IT", "JO", "JP", "KW", "LB", "LI", "LT", "LU", "LV", "MA", "MC", "MT", "MX", "MY", "NI", "NL", "NO", "NZ", "OM", "PA", "PE", "PH", "PL", "PS", "PT", "PY", "QA", "RO", "SA", "SE", "SG", "SK", "SV", "TH", "TN", "TR", "TW", "US", "UY", "VN", "ZA"], "disc_number": 1, "duration_ms": 256069, "explicit": false, "external_ids": {"isrc": "ES6880300105"}, "external_urls": {"spotify": "https://open.spotify.com/track/1h4wbNA48HRxyoziXujCyR"}, "href": "https://api.spotify.com/v1/tracks/1h4wbNA48HRxyoziXujCyR", "id": "1h4wbNA48HRxyoziXujCyR", "is_local": false, "name": "La Rosa De Los Vientos", "popularity": 47, "preview_url": "https://p.scdn.co/mp3-preview/6c877bc085805f8bad722df9dd55956e4ccea8f0?cid=348f94d3a73241188b2a89c91e1cfaee", "track_number": 7, "type": "track", "uri": "spotify:track:1h4wbNA48HRxyoziXujCyR"}, {"album": {"album_type": "album", "artists": [{"external_urls": {"spotify": "https://open.spotify.com/artist/5ZNxiPcbKgaNcBrERMpqeu"}, "href": "https://api.spotify.com/v1/artists/5ZNxiPcbKgaNcBrERMpqeu", "id": "5ZNxiPcbKgaNcBrERMpqeu", "name": "M\u00e4go de Oz", "type": "artist", "uri": "spotify:artist:5ZNxiPcbKgaNcBrERMpqeu"}], "available_markets": ["AD", "AE", "AR", "AT", "AU", "BE", "BG", "BH", "BO", "BR", "CA", "CH", "CL", "CO", "CR", "CY", "CZ", "DE", "DK", "DO", "DZ", "EC", "EE", "EG", "ES", "FI", "FR", "GB", "GR", "GT", "HK", "HN", "HU", "ID", "IE", "IL", "IN", "IS", "IT", "JO", "JP", "KW", "LB", "LI", "LT", "LU", "LV", "MA", "MC", "MT", "MX", "MY", "NI", "NL", "NO", "NZ", "OM", "PA", "PE", "PH", "PL", "PS", "PT", "PY", "QA", "RO", "SA", "SE", "SG", "SK", "SV", "TH", "TN", "TR", "TW", "US", "UY", "VN", "ZA"], "external_urls": {"spotify": "https://open.spotify.com/album/6cW6LaXdyLYMqZUfJInWUz"}, "href": "https://api.spotify.com/v1/albums/6cW6LaXdyLYMqZUfJInWUz", "id": "6cW6LaXdyLYMqZUfJInWUz", "images": [{"height": 640, "url": "https://i.scdn.co/image/ab67616d0000b27363e163ead118db13035c323f", "width": 640}, {"height": 300, "url": "https://i.scdn.co/image/ab67616d00001e0263e163ead118db13035c323f", "width": 300}, {"height": 64, "url": "https://i.scdn.co/image/ab67616d0000485163e163ead118db13035c323f", "width": 64}], "name": "Ira Dei", "release_date": "2019-03-08", "release_date_precision": "day", "total_tracks": 17, "type": "album", "uri": "spotify:album:6cW6LaXdyLYMqZUfJInWUz"}, "artists": [{"external_urls": {"spotify": "https://open.spotify.com/artist/5ZNxiPcbKgaNcBrERMpqeu"}, "href": "https://api.spotify.com/v1/artists/5ZNxiPcbKgaNcBrERMpqeu", "id": "5ZNxiPcbKgaNcBrERMpqeu", "name": "M\u00e4go de Oz", "type": "artist", "uri": "spotify:artist:5ZNxiPcbKgaNcBrERMpqeu"}], "available_markets": ["AD", "AE", "AR", "AT", "AU", "BE", "BG", "BH", "BO", "BR", "CA", "CH", "CL", "CO", "CR", "CY", "CZ", "DE", "DK", "DO", "DZ", "EC", "EE", "EG", "ES", "FI", "FR", "GB", "GR", "GT", "HK", "HN", "HU", "ID", "IE", "IL", "IN", "IS", "IT", "JO", "JP", "KW", "LB", "LI", "LT", "LU", "LV", "MA", "MC", "MT", "MX", "MY", "NI", "NL", "NO", "NZ", "OM", "PA", "PE", "PH", "PL", "PS", "PT", "PY", "QA", "RO", "SA", "SE", "SG", "SK", "SV", "TH", "TN", "TR", "TW", "US", "UY", "VN", "ZA"], "disc_number": 1, "duration_ms": 353706, "explicit": false, "external_ids": {"isrc": "ES5151802570"}, "external_urls": {"spotify": "https://open.spotify.com/track/0FWalCAwAQKo6RsytWPMUw"}, "href": "https://api.spotify.com/v1/tracks/0FWalCAwAQKo6RsytWPMUw", "id": "0FWalCAwAQKo6RsytWPMUw", "is_local": false, "name": "La cantiga de las brujas", "popularity": 53, "preview_url": "https://p.scdn.co/mp3-preview/e463a1984c95685f72225e56aae3fd0004da39ce?cid=348f94d3a73241188b2a89c91e1cfaee", "track_number": 8, "type": "track", "uri": "spotify:track:0FWalCAwAQKo6RsytWPMUw"}, {"album": {"album_type": "album", "artists": [{"external_urls": {"spotify": "https://open.spotify.com/artist/5ZNxiPcbKgaNcBrERMpqeu"}, "href": "https://api.spotify.com/v1/artists/5ZNxiPcbKgaNcBrERMpqeu", "id": "5ZNxiPcbKgaNcBrERMpqeu", "name": "M\u00e4go de Oz", "type": "artist", "uri": "spotify:artist:5ZNxiPcbKgaNcBrERMpqeu"}], "available_markets": ["AD", "AE", "AR", "AT", "AU", "BE", "BG", "BH", "BO", "BR", "CA", "CH", "CL", "CO", "CR", "CY", "CZ", "DE", "DK", "DO", "DZ", "EC", "EE", "EG", "ES", "FI", "FR", "GB", "GR", "GT", "HK", "HN", "HU", "ID", "IE", "IL", "IN", "IS", "IT", "JO", "JP", "KW", "LB", "LI", "LT", "LU", "LV", "MA", "MC", "MT", "MX", "MY", "NI", "NL", "NO", "NZ", "OM", "PA", "PE", "PH", "PL", "PS", "PT", "PY", "QA", "RO", "SA", "SE", "SG", "SK", "SV", "TH", "TN", "TR", "TW", "US", "UY", "VN", "ZA"], "external_urls": {"spotify": "https://open.spotify.com/album/1Da87nj7hlkdRAh9Zf5jp7"}, "href": "https://api.spotify.com/v1/albums/1Da87nj7hlkdRAh9Zf5jp7", "id": "1Da87nj7hlkdRAh9Zf5jp7", "images": [{"height": 640, "url": "https://i.scdn.co/image/ab67616d0000b2732d53712ff7eb4d40d995a666", "width": 640}, {"height": 300, "url": "https://i.scdn.co/image/ab67616d00001e022d53712ff7eb4d40d995a666", "width": 300}, {"height": 64, "url": "https://i.scdn.co/image/ab67616d000048512d53712ff7eb4d40d995a666", "width": 64}], "name": "La Leyenda De La Mancha", "release_date": "1998", "release_date_precision": "year", "total_tracks": 13, "type": "album", "uri": "spotify:album:1Da87nj7hlkdRAh9Zf5jp7"}, "artists": [{"external_urls": {"spotify": "https://open.spotify.com/artist/5ZNxiPcbKgaNcBrERMpqeu"}, "href": "https://api.spotify.com/v1/artists/5ZNxiPcbKgaNcBrERMpqeu", "id": "5ZNxiPcbKgaNcBrERMpqeu", "name": "M\u00e4go de Oz", "type": "artist", "uri": "spotify:artist:5ZNxiPcbKgaNcBrERMpqeu"}], "available_markets": ["AD", "AE", "AR", "AT", "AU", "BE", "BG", "BH", "BO", "BR", "CA", "CH", "CL", "CO", "CR", "CY", "CZ", "DE", "DK", "DO", "DZ", "EC", "EE", "EG", "ES", "FI", "FR", "GB", "GR", "GT", "HK", "HN", "HU", "ID", "IE", "IL", "IN", "IS", "IT", "JO", "JP", "KW", "LB", "LI", "LT", "LU", "LV", "MA", "MC", "MT", "MX", "MY", "NI", "NL", "NO", "NZ", "OM", "PA", "PE", "PH", "PL", "PS", "PT", "PY", "QA", "RO", "SA", "SE", "SG", "SK", "SV", "TH", "TN", "TR", "TW", "US", "UY", "VN", "ZA"], "disc_number": 1, "duration_ms": 310009, "explicit": false, "external_ids": {"isrc": "ES6880300137"}, "external_urls": {"spotify": "https://open.spotify.com/track/1NURhO7dVP9msnwuY75tvd"}, "href": "https://api.spotify.com/v1/tracks/1NURhO7dVP9msnwuY75tvd", "id": "1NURhO7dVP9msnwuY75tvd", "is_local": false, "name": "El Santo Grial", "popularity": 50, "preview_url": "https://p.scdn.co/mp3-preview/4a4b5d291e9a641c2f1080b7be020fb60b35e469?cid=348f94d3a73241188b2a89c91e1cfaee", "track_number": 2, "type": "track", "uri": "spotify:track:1NURhO7dVP9msnwuY75tvd"}, {"album": {"album_type": "album", "artists": [{"external_urls": {"spotify": "https://open.spotify.com/artist/5ZNxiPcbKgaNcBrERMpqeu"}, "href": "https://api.spotify.com/v1/artists/5ZNxiPcbKgaNcBrERMpqeu", "id": "5ZNxiPcbKgaNcBrERMpqeu", "name": "M\u00e4go de Oz", "type": "artist", "uri": "spotify:artist:5ZNxiPcbKgaNcBrERMpqeu"}], "available_markets": ["AD", "AE", "AR", "AT", "AU", "BE", "BG", "BH", "BO", "BR", "CA", "CH", "CL", "CO", "CR", "CY", "CZ", "DE", "DK", "DO", "DZ", "EC", "EE", "EG", "ES", "FI", "FR", "GB", "GR", "GT", "HK", "HN", "HU", "ID", "IE", "IL", "IN", "IS", "IT", "JO", "JP", "KW", "LB", "LI", "LT", "LU", "LV", "MA", "MC", "MT", "MX", "MY", "NI", "NL", "NO", "NZ", "OM", "PA", "PE", "PH", "PL", "PS", "PT", "PY", "QA", "RO", "SA", "SE", "SG", "SK", "SV", "TH", "TN", "TR", "TW", "US", "UY", "VN", "ZA"], "external_urls": {"spotify": "https://open.spotify.com/album/6cW6LaXdyLYMqZUfJInWUz"}, "href": "https://api.spotify.com/v1/albums/6cW6LaXdyLYMqZUfJInWUz", "id": "6cW6LaXdyLYMqZUfJInWUz", "images": [{"height": 640, "url": "https://i.scdn.co/image/ab67616d0000b27363e163ead118db13035c323f", "width": 640}, {"height": 300, "url": "https://i.scdn.co/image/ab67616d00001e0263e163ead118db13035c323f", "width": 300}, {"height": 64, "url": "https://i.scdn.co/image/ab67616d0000485163e163ead118db13035c323f", "width": 64}], "name": "Ira Dei", "release_date": "2019-03-08", "release_date_precision": "day", "total_tracks": 17, "type": "album", "uri": "spotify:album:6cW6LaXdyLYMqZUfJInWUz"}, "artists": [{"external_urls": {"spotify": "https://open.spotify.com/artist/5ZNxiPcbKgaNcBrERMpqeu"}, "href": "https://api.spotify.com/v1/artists/5ZNxiPcbKgaNcBrERMpqeu", "id": "5ZNxiPcbKgaNcBrERMpqeu", "name": "M\u00e4go de Oz", "type": "artist", "uri": "spotify:artist:5ZNxiPcbKgaNcBrERMpqeu"}, {"external_urls": {"spotify": "https://open.spotify.com/artist/5kIE5Bm5P9h6KDsz46V2qc"}, "href": "https://api.spotify.com/v1/artists/5kIE5Bm5P9h6KDsz46V2qc", "id": "5kIE5Bm5P9h6KDsz46V2qc", "name": "Ara Malikian", "type": "artist", "uri": "spotify:artist:5kIE5Bm5P9h6KDsz46V2qc"}], "available_markets": ["AD", "AE", "AR", "AT", "AU", "BE", "BG", "BH", "BO", "BR", "CA", "CH", "CL", "CO", "CR", "CY", "CZ", "DE", "DK", "DO", "DZ", "EC", "EE", "EG", "ES", "FI", "FR", "GB", "GR", "GT", "HK", "HN", "HU", "ID", "IE", "IL", "IN", "IS", "IT", "JO", "JP", "KW", "LB", "LI", "LT", "LU", "LV", "MA", "MC", "MT", "MX", "MY", "NI", "NL", "NO", "NZ", "OM", "PA", "PE", "PH", "PL", "PS", "PT", "PY", "QA", "RO", "SA", "SE", "SG", "SK", "SV", "TH", "TN", "TR", "TW", "US", "UY", "VN", "ZA"], "disc_number": 1, "duration_ms": 284874, "explicit": false, "external_ids": {"isrc": "ES5151900007"}, "external_urls": {"spotify": "https://open.spotify.com/track/4myEGSZoVXxoLTnUgzEoPG"}, "href": "https://api.spotify.com/v1/tracks/4myEGSZoVXxoLTnUgzEoPG", "id": "4myEGSZoVXxoLTnUgzEoPG", "is_local": false, "name": "Te traer\u00e9 el horizonte (feat. Ara Malikian)", "popularity": 52, "preview_url": "https://p.scdn.co/mp3-preview/8d034044101fad71edae21ea83f9ba784c52d148?cid=348f94d3a73241188b2a89c91e1cfaee", "track_number": 7, "type": "track", "uri": "spotify:track:4myEGSZoVXxoLTnUgzEoPG"}], "limit": 10, "next": "https://api.spotify.com/v1/search?query=m%C3%A4go+de+oz&type=track&offset=10&limit=10", "offset": 0, "previous": null, "total": 724}}